[
  {
    "id" : 1,
    "name" : "dependencies",
    "color" : "#d9534f",
    "text_color" : "#FFFFFF",
    "description": "Pull requests that update a dependency file",
    "description_html": "Pull requests that update a dependency file",
    "open_issues_count": 1,
    "closed_issues_count": 0,
    "open_merge_requests_count": 1,
    "subscribed": false,
    "priority": 10,
    "is_project_label": true
  },
  {
    "id" : 4,
    "color" : "#d9534f",
    "text_color" : "#FFFFFF",
    "name" : "ruby",
    "description": "",
    "description_html": "",
    "open_issues_count": 2,
    "closed_issues_count": 5,
    "open_merge_requests_count": 0,
    "subscribed": false,
    "priority": null,
    "is_project_label": true
  }
]
